<?xml version="1.0" encoding="UTF-8" standalone="no"?>
<!-- Created with Inkscape (http://www.inkscape.org/) -->

<svg
   xmlns:dc="http://purl.org/dc/elements/1.1/"
   xmlns:cc="http://creativecommons.org/ns#"
   xmlns:rdf="http://www.w3.org/1999/02/22-rdf-syntax-ns#"
   xmlns:svg="http://www.w3.org/2000/svg"
   xmlns="http://www.w3.org/2000/svg"
   xmlns:sodipodi="http://sodipodi.sourceforge.net/DTD/sodipodi-0.dtd"
   xmlns:inkscape="http://www.inkscape.org/namespaces/inkscape"
   width="95.955559mm"
   height="97.762512mm"
   viewBox="0 0 340.00001 346.4026"
   id="svg2"
   version="1.1"
   inkscape:version="0.91 r13725"
   sodipodi:docname="2.svg">
  <defs
     id="defs4">
    <marker
       inkscape:isstock="true"
       style="overflow:visible"
       id="marker15425"
       refX="0"
       refY="0"
       orient="auto"
       inkscape:stockid="Arrow1Lend">
      <path
         inkscape:connector-curvature="0"
         transform="matrix(-0.8,0,0,-0.8,-10,0)"
         style="fill:#000000;fill-opacity:1;fill-rule:evenodd;stroke:#000000;stroke-width:1pt;stroke-opacity:1"
         d="M 0,0 5,-5 -12.5,0 5,5 0,0 Z"
         id="path15427" />
    </marker>
    <marker
       inkscape:stockid="Arrow1Lend"
       orient="auto"
       refY="0"
       refX="0"
       id="marker15110"
       style="overflow:visible"
       inkscape:isstock="true">
      <path
         id="path15112"
         d="M 0,0 5,-5 -12.5,0 5,5 0,0 Z"
         style="fill:#00900a;fill-opacity:1;fill-rule:evenodd;stroke:#00900a;stroke-width:1pt;stroke-opacity:1"
         transform="matrix(-0.8,0,0,-0.8,-10,0)"
         inkscape:connector-curvature="0" />
    </marker>
    <marker
       inkscape:stockid="Arrow1Lend"
       orient="auto"
       refY="0"
       refX="0"
       id="marker13914"
       style="overflow:visible"
       inkscape:isstock="true">
      <path
         id="path13916"
         d="M 0,0 5,-5 -12.5,0 5,5 0,0 Z"
         style="fill:#ff5858;fill-opacity:1;fill-rule:evenodd;stroke:#ff5858;stroke-width:1pt;stroke-opacity:1"
         transform="matrix(-0.8,0,0,-0.8,-10,0)"
         inkscape:connector-curvature="0" />
    </marker>
    <marker
       inkscape:isstock="true"
       style="overflow:visible"
       id="marker13682"
       refX="0"
       refY="0"
       orient="auto"
       inkscape:stockid="Arrow1Lend"
       inkscape:collect="always">
      <path
         inkscape:connector-curvature="0"
         transform="matrix(-0.8,0,0,-0.8,-10,0)"
         style="fill:#ff5858;fill-opacity:1;fill-rule:evenodd;stroke:#ff5858;stroke-width:1pt;stroke-opacity:1"
         d="M 0,0 5,-5 -12.5,0 5,5 0,0 Z"
         id="path13684" />
    </marker>
    <marker
       inkscape:stockid="Arrow1Lend"
       orient="auto"
       refY="0"
       refX="0"
       id="marker13456"
       style="overflow:visible"
       inkscape:isstock="true"
       inkscape:collect="always">
      <path
         id="path13458"
         d="M 0,0 5,-5 -12.5,0 5,5 0,0 Z"
         style="fill:#ff5858;fill-opacity:1;fill-rule:evenodd;stroke:#ff5858;stroke-width:1pt;stroke-opacity:1"
         transform="matrix(-0.8,0,0,-0.8,-10,0)"
         inkscape:connector-curvature="0" />
    </marker>
    <marker
       inkscape:isstock="true"
       style="overflow:visible"
       id="marker11167"
       refX="0"
       refY="0"
       orient="auto"
       inkscape:stockid="Arrow1Lend">
      <path
         inkscape:connector-curvature="0"
         transform="matrix(-0.8,0,0,-0.8,-10,0)"
         style="fill:#ff5858;fill-opacity:1;fill-rule:evenodd;stroke:#ff5858;stroke-width:1pt;stroke-opacity:1"
         d="M 0,0 5,-5 -12.5,0 5,5 0,0 Z"
         id="path11169" />
    </marker>
    <marker
       inkscape:isstock="true"
       style="overflow:visible"
       id="marker10284"
       refX="0"
       refY="0"
       orient="auto"
       inkscape:stockid="Arrow1Lend"
       inkscape:collect="always">
      <path
         inkscape:connector-curvature="0"
         transform="matrix(-0.8,0,0,-0.8,-10,0)"
         style="fill:#000000;fill-opacity:1;fill-rule:evenodd;stroke:#000000;stroke-width:1pt;stroke-opacity:1"
         d="M 0,0 5,-5 -12.5,0 5,5 0,0 Z"
         id="path10286" />
    </marker>
    <marker
       inkscape:stockid="Arrow1Lend"
       orient="auto"
       refY="0"
       refX="0"
       id="Arrow1Lend"
       style="overflow:visible"
       inkscape:isstock="true"
       inkscape:collect="always">
      <path
         id="path4166"
         d="M 0,0 5,-5 -12.5,0 5,5 0,0 Z"
         style="fill:#000000;fill-opacity:1;fill-rule:evenodd;stroke:#000000;stroke-width:1pt;stroke-opacity:1"
         transform="matrix(-0.8,0,0,-0.8,-10,0)"
         inkscape:connector-curvature="0" />
    </marker>
    <marker
       inkscape:isstock="true"
       style="overflow:visible"
       id="marker8119"
       refX="0"
       refY="0"
       orient="auto"
       inkscape:stockid="Arrow1Lend">
      <path
         transform="matrix(-0.8,0,0,-0.8,-10,0)"
         style="fill:#000000;fill-opacity:1;fill-rule:evenodd;stroke:#000000;stroke-width:1pt;stroke-opacity:1"
         d="M 0,0 5,-5 -12.5,0 5,5 0,0 Z"
         id="path8121"
         inkscape:connector-curvature="0" />
    </marker>
    <marker
       inkscape:stockid="Arrow1Lend"
       orient="auto"
       refY="0"
       refX="0"
       id="marker7163"
       style="overflow:visible"
       inkscape:isstock="true">
      <path
         id="path7165"
         d="M 0,0 5,-5 -12.5,0 5,5 0,0 Z"
         style="fill:#ff5858;fill-opacity:1;fill-rule:evenodd;stroke:#ff5858;stroke-width:1pt;stroke-opacity:1"
         transform="matrix(-0.8,0,0,-0.8,-10,0)"
         inkscape:connector-curvature="0" />
    </marker>
    <marker
       inkscape:stockid="Arrow1Lend"
       orient="auto"
       refY="0"
       refX="0"
       id="marker6807"
       style="overflow:visible"
       inkscape:isstock="true">
      <path
         id="path6809"
         d="M 0,0 5,-5 -12.5,0 5,5 0,0 Z"
         style="fill:#009a1f;fill-opacity:1;fill-rule:evenodd;stroke:#009a1f;stroke-width:1pt;stroke-opacity:1"
         transform="matrix(-0.8,0,0,-0.8,-10,0)"
         inkscape:connector-curvature="0" />
    </marker>
    <inkscape:perspective
       sodipodi:type="inkscape:persp3d"
       inkscape:vp_x="0 : 372.04726 : 1"
       inkscape:vp_y="0 : 1000 : 0"
       inkscape:vp_z="1052.3623 : 372.04726 : 1"
       inkscape:persp3d-origin="526.18111 : 248.0315 : 1"
       id="perspective6650" />
    <marker
       inkscape:isstock="true"
       style="overflow:visible"
       id="marker4479"
       refX="0"
       refY="0"
       orient="auto"
       inkscape:stockid="Arrow1Lend">
      <path
         transform="matrix(-0.8,0,0,-0.8,-10,0)"
         style="fill:#000000;fill-opacity:1;fill-rule:evenodd;stroke:#000000;stroke-width:1pt;stroke-opacity:1"
         d="M 0,0 5,-5 -12.5,0 5,5 0,0 Z"
         id="path4481"
         inkscape:connector-curvature="0" />
    </marker>
    <marker
       inkscape:isstock="true"
       style="overflow:visible"
       id="marker4649-2"
       refX="0"
       refY="0"
       orient="auto"
       inkscape:stockid="Arrow1Lend">
      <path
         inkscape:connector-curvature="0"
         transform="matrix(-0.8,0,0,-0.8,-10,0)"
         style="fill:#ff5858;fill-opacity:1;fill-rule:evenodd;stroke:#ff5858;stroke-width:1pt;stroke-opacity:1"
         d="M 0,0 5,-5 -12.5,0 5,5 0,0 Z"
         id="path4651-9" />
    </marker>
    <marker
       inkscape:isstock="true"
       style="overflow:visible"
       id="marker4649-27"
       refX="0"
       refY="0"
       orient="auto"
       inkscape:stockid="Arrow1Lend">
      <path
         inkscape:connector-curvature="0"
         transform="matrix(-0.8,0,0,-0.8,-10,0)"
         style="fill:#ff5858;fill-opacity:1;fill-rule:evenodd;stroke:#ff5858;stroke-width:1pt;stroke-opacity:1"
         d="M 0,0 5,-5 -12.5,0 5,5 0,0 Z"
         id="path4651-0" />
    </marker>
    <marker
       inkscape:isstock="true"
       style="overflow:visible"
       id="marker4649-3"
       refX="0"
       refY="0"
       orient="auto"
       inkscape:stockid="Arrow1Lend">
      <path
         inkscape:connector-curvature="0"
         transform="matrix(-0.8,0,0,-0.8,-10,0)"
         style="fill:#ff5858;fill-opacity:1;fill-rule:evenodd;stroke:#ff5858;stroke-width:1pt;stroke-opacity:1"
         d="M 0,0 5,-5 -12.5,0 5,5 0,0 Z"
         id="path4651-6" />
    </marker>
    <marker
       inkscape:isstock="true"
       style="overflow:visible"
       id="marker4649-2-0"
       refX="0"
       refY="0"
       orient="auto"
       inkscape:stockid="Arrow1Lend">
      <path
         inkscape:connector-curvature="0"
         transform="matrix(-0.8,0,0,-0.8,-10,0)"
         style="fill:#ff5858;fill-opacity:1;fill-rule:evenodd;stroke:#ff5858;stroke-width:1pt;stroke-opacity:1"
         d="M 0,0 5,-5 -12.5,0 5,5 0,0 Z"
         id="path4651-9-6" />
    </marker>
    <marker
       inkscape:isstock="true"
       style="overflow:visible"
       id="marker4649-27-2"
       refX="0"
       refY="0"
       orient="auto"
       inkscape:stockid="Arrow1Lend">
      <path
         inkscape:connector-curvature="0"
         transform="matrix(-0.8,0,0,-0.8,-10,0)"
         style="fill:#ff5858;fill-opacity:1;fill-rule:evenodd;stroke:#ff5858;stroke-width:1pt;stroke-opacity:1"
         d="M 0,0 5,-5 -12.5,0 5,5 0,0 Z"
         id="path4651-0-6" />
    </marker>
    <marker
       inkscape:isstock="true"
       style="overflow:visible"
       id="marker8119-9"
       refX="0"
       refY="0"
       orient="auto"
       inkscape:stockid="Arrow1Lend">
      <path
         transform="matrix(-0.8,0,0,-0.8,-10,0)"
         style="fill:#000000;fill-opacity:1;fill-rule:evenodd;stroke:#000000;stroke-width:1pt;stroke-opacity:1"
         d="M 0,0 5,-5 -12.5,0 5,5 0,0 Z"
         id="path8121-1"
         inkscape:connector-curvature="0" />
    </marker>
    <marker
       inkscape:stockid="Arrow1Lend"
       orient="auto"
       refY="0"
       refX="0"
       id="marker7163-5"
       style="overflow:visible"
       inkscape:isstock="true">
      <path
         id="path7165-9"
         d="M 0,0 5,-5 -12.5,0 5,5 0,0 Z"
         style="fill:#ff5858;fill-opacity:1;fill-rule:evenodd;stroke:#ff5858;stroke-width:1pt;stroke-opacity:1"
         transform="matrix(-0.8,0,0,-0.8,-10,0)"
         inkscape:connector-curvature="0" />
    </marker>
    <marker
       inkscape:stockid="Arrow1Lend"
       orient="auto"
       refY="0"
       refX="0"
       id="marker6807-6"
       style="overflow:visible"
       inkscape:isstock="true">
      <path
         id="path6809-7"
         d="M 0,0 5,-5 -12.5,0 5,5 0,0 Z"
         style="fill:#009a1f;fill-opacity:1;fill-rule:evenodd;stroke:#009a1f;stroke-width:1pt;stroke-opacity:1"
         transform="matrix(-0.8,0,0,-0.8,-10,0)"
         inkscape:connector-curvature="0" />
    </marker>
    <marker
       inkscape:isstock="true"
       style="overflow:visible"
       id="marker4649-3-3"
       refX="0"
       refY="0"
       orient="auto"
       inkscape:stockid="Arrow1Lend">
      <path
         inkscape:connector-curvature="0"
         transform="matrix(-0.8,0,0,-0.8,-10,0)"
         style="fill:#ff5858;fill-opacity:1;fill-rule:evenodd;stroke:#ff5858;stroke-width:1pt;stroke-opacity:1"
         d="M 0,0 5,-5 -12.5,0 5,5 0,0 Z"
         id="path4651-6-6" />
    </marker>
    <marker
       inkscape:isstock="true"
       style="overflow:visible"
       id="marker4649-2-0-5"
       refX="0"
       refY="0"
       orient="auto"
       inkscape:stockid="Arrow1Lend">
      <path
         inkscape:connector-curvature="0"
         transform="matrix(-0.8,0,0,-0.8,-10,0)"
         style="fill:#ff5858;fill-opacity:1;fill-rule:evenodd;stroke:#ff5858;stroke-width:1pt;stroke-opacity:1"
         d="M 0,0 5,-5 -12.5,0 5,5 0,0 Z"
         id="path4651-9-6-6" />
    </marker>
    <marker
       inkscape:isstock="true"
       style="overflow:visible"
       id="marker4649-27-2-3"
       refX="0"
       refY="0"
       orient="auto"
       inkscape:stockid="Arrow1Lend">
      <path
         inkscape:connector-curvature="0"
         transform="matrix(-0.8,0,0,-0.8,-10,0)"
         style="fill:#ff5858;fill-opacity:1;fill-rule:evenodd;stroke:#ff5858;stroke-width:1pt;stroke-opacity:1"
         d="M 0,0 5,-5 -12.5,0 5,5 0,0 Z"
         id="path4651-0-6-9" />
    </marker>
    <marker
       inkscape:isstock="true"
       style="overflow:visible"
       id="marker4649-2-1"
       refX="0"
       refY="0"
       orient="auto"
       inkscape:stockid="Arrow1Lend">
      <path
         inkscape:connector-curvature="0"
         transform="matrix(-0.8,0,0,-0.8,-10,0)"
         style="fill:#ff5858;fill-opacity:1;fill-rule:evenodd;stroke:#ff5858;stroke-width:1pt;stroke-opacity:1"
         d="M 0,0 5,-5 -12.5,0 5,5 0,0 Z"
         id="path4651-9-2" />
    </marker>
    <marker
       inkscape:isstock="true"
       style="overflow:visible"
       id="marker4649-27-9"
       refX="0"
       refY="0"
       orient="auto"
       inkscape:stockid="Arrow1Lend">
      <path
         inkscape:connector-curvature="0"
         transform="matrix(-0.8,0,0,-0.8,-10,0)"
         style="fill:#ff5858;fill-opacity:1;fill-rule:evenodd;stroke:#ff5858;stroke-width:1pt;stroke-opacity:1"
         d="M 0,0 5,-5 -12.5,0 5,5 0,0 Z"
         id="path4651-0-3" />
    </marker>
    <marker
       inkscape:stockid="Arrow1Lend"
       orient="auto"
       refY="0"
       refX="0"
       id="Arrow1Lend-5"
       style="overflow:visible"
       inkscape:isstock="true">
      <path
         id="path4166-0"
         d="M 0,0 5,-5 -12.5,0 5,5 0,0 Z"
         style="fill:#000000;fill-opacity:1;fill-rule:evenodd;stroke:#000000;stroke-width:1pt;stroke-opacity:1"
         transform="matrix(-0.8,0,0,-0.8,-10,0)"
         inkscape:connector-curvature="0" />
    </marker>
    <marker
       inkscape:isstock="true"
       style="overflow:visible"
       id="marker11167-8"
       refX="0"
       refY="0"
       orient="auto"
       inkscape:stockid="Arrow1Lend">
      <path
         inkscape:connector-curvature="0"
         transform="matrix(-0.8,0,0,-0.8,-10,0)"
         style="fill:#ff5858;fill-opacity:1;fill-rule:evenodd;stroke:#ff5858;stroke-width:1pt;stroke-opacity:1"
         d="M 0,0 5,-5 -12.5,0 5,5 0,0 Z"
         id="path11169-6" />
    </marker>
    <marker
       inkscape:isstock="true"
       style="overflow:visible"
       id="marker11167-84"
       refX="0"
       refY="0"
       orient="auto"
       inkscape:stockid="Arrow1Lend">
      <path
         inkscape:connector-curvature="0"
         transform="matrix(-0.8,0,0,-0.8,-10,0)"
         style="fill:#ff5858;fill-opacity:1;fill-rule:evenodd;stroke:#ff5858;stroke-width:1pt;stroke-opacity:1"
         d="M 0,0 5,-5 -12.5,0 5,5 0,0 Z"
         id="path11169-7" />
    </marker>
    <marker
       inkscape:isstock="true"
       style="overflow:visible"
       id="marker11167-84-3"
       refX="0"
       refY="0"
       orient="auto"
       inkscape:stockid="Arrow1Lend">
      <path
         inkscape:connector-curvature="0"
         transform="matrix(-0.8,0,0,-0.8,-10,0)"
         style="fill:#ff5858;fill-opacity:1;fill-rule:evenodd;stroke:#ff5858;stroke-width:1pt;stroke-opacity:1"
         d="M 0,0 5,-5 -12.5,0 5,5 0,0 Z"
         id="path11169-7-9" />
    </marker>
    <marker
       inkscape:isstock="true"
       style="overflow:visible"
       id="marker11167-8-1"
       refX="0"
       refY="0"
       orient="auto"
       inkscape:stockid="Arrow1Lend">
      <path
         inkscape:connector-curvature="0"
         transform="matrix(-0.8,0,0,-0.8,-10,0)"
         style="fill:#ff5858;fill-opacity:1;fill-rule:evenodd;stroke:#ff5858;stroke-width:1pt;stroke-opacity:1"
         d="M 0,0 5,-5 -12.5,0 5,5 0,0 Z"
         id="path11169-6-9" />
    </marker>
    <marker
       inkscape:isstock="true"
       style="overflow:visible"
       id="marker11167-6"
       refX="0"
       refY="0"
       orient="auto"
       inkscape:stockid="Arrow1Lend">
      <path
         inkscape:connector-curvature="0"
         transform="matrix(-0.8,0,0,-0.8,-10,0)"
         style="fill:#ff5858;fill-opacity:1;fill-rule:evenodd;stroke:#ff5858;stroke-width:1pt;stroke-opacity:1"
         d="M 0,0 5,-5 -12.5,0 5,5 0,0 Z"
         id="path11169-9" />
    </marker>
    <marker
       inkscape:isstock="true"
       style="overflow:visible"
       id="marker11167-84-5"
       refX="0"
       refY="0"
       orient="auto"
       inkscape:stockid="Arrow1Lend">
      <path
         inkscape:connector-curvature="0"
         transform="matrix(-0.8,0,0,-0.8,-10,0)"
         style="fill:#ff5858;fill-opacity:1;fill-rule:evenodd;stroke:#ff5858;stroke-width:1pt;stroke-opacity:1"
         d="M 0,0 5,-5 -12.5,0 5,5 0,0 Z"
         id="path11169-7-6" />
    </marker>
    <marker
       inkscape:isstock="true"
       style="overflow:visible"
       id="marker11167-8-6"
       refX="0"
       refY="0"
       orient="auto"
       inkscape:stockid="Arrow1Lend">
      <path
         inkscape:connector-curvature="0"
         transform="matrix(-0.8,0,0,-0.8,-10,0)"
         style="fill:#ff5858;fill-opacity:1;fill-rule:evenodd;stroke:#ff5858;stroke-width:1pt;stroke-opacity:1"
         d="M 0,0 5,-5 -12.5,0 5,5 0,0 Z"
         id="path11169-6-4" />
    </marker>
    <marker
       inkscape:isstock="true"
       style="overflow:visible"
       id="marker11167-0"
       refX="0"
       refY="0"
       orient="auto"
       inkscape:stockid="Arrow1Lend">
      <path
         inkscape:connector-curvature="0"
         transform="matrix(-0.8,0,0,-0.8,-10,0)"
         style="fill:#ff5858;fill-opacity:1;fill-rule:evenodd;stroke:#ff5858;stroke-width:1pt;stroke-opacity:1"
         d="M 0,0 5,-5 -12.5,0 5,5 0,0 Z"
         id="path11169-0" />
    </marker>
    <marker
       inkscape:isstock="true"
       style="overflow:visible"
       id="marker13682-7"
       refX="0"
       refY="0"
       orient="auto"
       inkscape:stockid="Arrow1Lend"
       inkscape:collect="always">
      <path
         inkscape:connector-curvature="0"
         transform="matrix(-0.8,0,0,-0.8,-10,0)"
         style="fill:#898989;fill-opacity:1;fill-rule:evenodd;stroke:#898989;stroke-width:1pt;stroke-opacity:1"
         d="M 0,0 5,-5 -12.5,0 5,5 0,0 Z"
         id="path13684-0" />
    </marker>
    <marker
       inkscape:stockid="Arrow1Lend"
       orient="auto"
       refY="0"
       refX="0"
       id="marker13914-4"
       style="overflow:visible"
       inkscape:isstock="true">
      <path
         id="path13916-8"
         d="M 0,0 5,-5 -12.5,0 5,5 0,0 Z"
         style="fill:#898989;fill-opacity:1;fill-rule:evenodd;stroke:#898989;stroke-width:1pt;stroke-opacity:1"
         transform="matrix(-0.8,0,0,-0.8,-10,0)"
         inkscape:connector-curvature="0" />
    </marker>
    <marker
       inkscape:stockid="Arrow1Lend"
       orient="auto"
       refY="0"
       refX="0"
       id="marker13456-0"
       style="overflow:visible"
       inkscape:isstock="true"
       inkscape:collect="always">
      <path
         id="path13458-4"
         d="M 0,0 5,-5 -12.5,0 5,5 0,0 Z"
         style="fill:#898989;fill-opacity:1;fill-rule:evenodd;stroke:#898989;stroke-width:1pt;stroke-opacity:1"
         transform="matrix(-0.8,0,0,-0.8,-10,0)"
         inkscape:connector-curvature="0" />
    </marker>
  </defs>
  <sodipodi:namedview
     id="base"
     pagecolor="#ffffff"
     bordercolor="#666666"
     borderopacity="1.0"
     inkscape:pageopacity="0.0"
     inkscape:pageshadow="2"
     inkscape:zoom="0.7"
     inkscape:cx="-56.009083"
     inkscape:cy="122.91269"
     inkscape:document-units="px"
     inkscape:current-layer="layer1"
     showgrid="true"
     inkscape:snap-bbox="true"
     inkscape:bbox-paths="true"
     inkscape:bbox-nodes="true"
     inkscape:snap-global="false"
     inkscape:window-width="1920"
     inkscape:window-height="1020"
     inkscape:window-x="0"
     inkscape:window-y="0"
     inkscape:window-maximized="1"
     fit-margin-top="0"
     fit-margin-left="0"
     fit-margin-right="0"
     fit-margin-bottom="0"
     width="210mm"
     showborder="true">
    <inkscape:grid
       type="xygrid"
       id="grid4136"
       originx="-870.00003"
       originy="-223.59742" />
  </sodipodi:namedview>
  <metadata
     id="metadata7">
    <rdf:RDF>
      <cc:Work
         rdf:about="">
        <dc:format>image/svg+xml</dc:format>
        <dc:type
           rdf:resource="http://purl.org/dc/dcmitype/StillImage" />
        <dc:title></dc:title>
      </cc:Work>
    </rdf:RDF>
  </metadata>
  <g
     inkscape:label="Layer 1"
     inkscape:groupmode="layer"
     id="layer1"
     transform="translate(-870,-482.36221)">
    <g
       id="g4584-8"
       style="opacity:0.725"
       transform="translate(204.44161,-111.56344)" />
    <flowRoot
       xml:space="preserve"
       id="flowRoot6564"
       style="font-style:normal;font-weight:normal;font-size:22.5px;line-height:125%;font-family:sans-serif;letter-spacing:0px;word-spacing:0px;fill:#000000;fill-opacity:1;stroke:none;stroke-width:1px;stroke-linecap:butt;stroke-linejoin:miter;stroke-opacity:1"
       transform="translate(265.28931,298.67193)"><flowRegion
         id="flowRegion6566"><rect
           id="rect6568"
           width="78.571426"
           height="77.85714"
           x="930"
           y="447.66592"
           style="font-size:22.5px" /></flowRegion><flowPara
         id="flowPara6570">X</flowPara></flowRoot>    <flowRoot
       transform="translate(-59.956054,358.67193)"
       xml:space="preserve"
       id="flowRoot6564-5"
       style="font-style:normal;font-weight:normal;font-size:22.5px;line-height:125%;font-family:sans-serif;letter-spacing:0px;word-spacing:0px;fill:#000000;fill-opacity:1;stroke:none;stroke-width:1px;stroke-linecap:butt;stroke-linejoin:miter;stroke-opacity:1"><flowRegion
         id="flowRegion6566-9"><rect
           id="rect6568-2"
           width="78.571426"
           height="77.85714"
           x="930"
           y="447.66592"
           style="font-size:22.5px" /></flowRegion><flowPara
         id="flowPara6570-2">Y</flowPara></flowRoot>    <flowRoot
       transform="translate(-4.4030757,28.671929)"
       xml:space="preserve"
       id="flowRoot6564-8"
       style="font-style:normal;font-weight:normal;font-size:22.5px;line-height:125%;font-family:sans-serif;letter-spacing:0px;word-spacing:0px;fill:#000000;fill-opacity:1;stroke:none;stroke-width:1px;stroke-linecap:butt;stroke-linejoin:miter;stroke-opacity:1"><flowRegion
         id="flowRegion6566-97"><rect
           id="rect6568-3"
           width="78.571426"
           height="77.85714"
           x="930"
           y="447.66592"
           style="font-size:22.5px" /></flowRegion><flowPara
         id="flowPara6570-6">Z</flowPara></flowRoot>    <flowRoot
       transform="translate(-359.83329,233.32777)"
       xml:space="preserve"
       id="flowRoot6564-4"
       style="font-style:normal;font-weight:normal;font-size:15px;line-height:125%;font-family:sans-serif;letter-spacing:0px;word-spacing:0px;fill:#000000;fill-opacity:1;stroke:none;stroke-width:1px;stroke-linecap:butt;stroke-linejoin:miter;stroke-opacity:1"><flowRegion
         id="flowRegion6566-5"><rect
           id="rect6568-0"
           width="78.571426"
           height="77.85714"
           x="930"
           y="447.66592"
           style="font-size:15px" /></flowRegion><flowPara
         id="flowPara6570-36" /></flowRoot>    <flowRoot
       transform="translate(-325.3544,171.00258)"
       xml:space="preserve"
       id="flowRoot6564-10-2-5"
       style="font-style:normal;font-weight:normal;font-size:15px;line-height:125%;font-family:sans-serif;letter-spacing:0px;word-spacing:0px;fill:#009a1f;fill-opacity:1;stroke:none;stroke-width:1px;stroke-linecap:butt;stroke-linejoin:miter;stroke-opacity:1"><flowRegion
         id="flowRegion6566-6-66-0"><rect
           id="rect6568-32-4-4"
           width="78.571426"
           height="77.85714"
           x="930"
           y="447.66592"
           style="font-size:15px;fill:#009a1f;fill-opacity:1" /></flowRegion><flowPara
         id="flowPara6570-0-9-8"
         style="font-style:normal;font-variant:normal;font-weight:bold;font-stretch:normal;font-size:17.5px;font-family:sans-serif;-inkscape-font-specification:'sans-serif Bold';fill:#009a1f;fill-opacity:1"><flowSpan
           style="font-size:64.99999762%;baseline-shift:sub;fill:#009a1f;fill-opacity:1"
           id="flowSpan6955-7" /></flowPara></flowRoot>    <flowRoot
       xml:space="preserve"
       id="flowRoot7114"
       style="font-style:normal;font-weight:normal;font-size:15px;line-height:125%;font-family:sans-serif;letter-spacing:0px;word-spacing:0px;fill:#000000;fill-opacity:1;stroke:none;stroke-width:1px;stroke-linecap:butt;stroke-linejoin:miter;stroke-opacity:1"
       transform="translate(0,308.26772)"><flowRegion
         id="flowRegion7116"><rect
           id="rect7118"
           width="65"
           height="55"
           x="605"
           y="314.09448"
           style="font-size:15px" /></flowRegion><flowPara
         id="flowPara7120"></flowPara></flowRoot>    <path
       style="opacity:0.54500002;fill:#898989;fill-rule:evenodd;stroke:#000000;stroke-width:1px;stroke-linecap:butt;stroke-linejoin:miter;stroke-opacity:1"
       d="m 976.86635,767.35522 38.37595,-18.09125 -94.11195,-33.80767 -38.3758,18.09125 z"
       id="path10444-3-7-8"
       inkscape:connector-curvature="0" />
    <path
       style="opacity:0.72699998;fill:#bcddff;fill-rule:evenodd;stroke:#000000;stroke-width:1px;stroke-linecap:butt;stroke-linejoin:miter;stroke-opacity:1"
       d="m 985,757.36222 30,-30 -100,0 -30,30 z"
       id="path10444"
       inkscape:connector-curvature="0" />
    <path
       style="fill:none;fill-rule:evenodd;stroke:#000000;stroke-width:1px;stroke-linecap:butt;stroke-linejoin:miter;stroke-opacity:1;marker-end:url(#Arrow1Lend)"
       d="m 950,742.36222 0,-250"
       id="path9691"
       inkscape:connector-curvature="0" />
    <path
       style="fill:none;fill-rule:evenodd;stroke:#000000;stroke-width:1px;stroke-linecap:butt;stroke-linejoin:miter;stroke-opacity:1;marker-end:url(#Arrow1Lend-5)"
       d="m 950,742.37307 250,0"
       id="path9691-6"
       inkscape:connector-curvature="0" />
    <path
       style="fill:none;fill-rule:evenodd;stroke:#000000;stroke-width:1px;stroke-linecap:butt;stroke-linejoin:miter;stroke-opacity:1;marker-end:url(#marker10284)"
       d="m 950,742.36222 -60,60"
       id="path10276"
       inkscape:connector-curvature="0" />
    <path
       style="fill:none;fill-rule:evenodd;stroke:#ff5858;stroke-width:1px;stroke-linecap:butt;stroke-linejoin:miter;stroke-opacity:1;marker-end:url(#marker11167)"
       d="m 950,742.36222 0,-45"
       id="path11159"
       inkscape:connector-curvature="0" />
    <path
       style="fill:none;fill-rule:evenodd;stroke:#ff5858;stroke-width:1px;stroke-linecap:butt;stroke-linejoin:miter;stroke-opacity:1;marker-end:url(#marker11167-8)"
       d="m 950,742.35136 45,0"
       id="path11159-2"
       inkscape:connector-curvature="0" />
    <path
       style="fill:none;fill-rule:evenodd;stroke:#ff5858;stroke-width:1px;stroke-linecap:butt;stroke-linejoin:miter;stroke-opacity:1;marker-end:url(#marker11167-84)"
       d="m 949.64634,742.71566 -31.81052,31.82906"
       id="path11159-24"
       inkscape:connector-curvature="0" />
    <flowRoot
       transform="translate(2.0804274,245.75197)"
       xml:space="preserve"
       id="flowRoot6564-10-6-06"
       style="font-style:normal;font-weight:normal;font-size:15px;line-height:125%;font-family:sans-serif;letter-spacing:0px;word-spacing:0px;fill:#ff5858;fill-opacity:1;stroke:none;stroke-width:1px;stroke-linecap:butt;stroke-linejoin:miter;stroke-opacity:1"><flowRegion
         id="flowRegion6566-6-1-2"><rect
           id="rect6568-32-5-9"
           width="78.571426"
           height="77.85714"
           x="930"
           y="447.66592"
           style="font-size:15px;fill:#ff5858" /></flowRegion><flowPara
         id="flowPara6570-0-5-90"
         style="font-style:normal;font-variant:normal;font-weight:bold;font-stretch:normal;font-size:17.5px;font-family:sans-serif;-inkscape-font-specification:'sans-serif Bold';fill:#ff5858">z</flowPara></flowRoot>    <flowRoot
       transform="translate(56.29848,273.18806)"
       xml:space="preserve"
       id="flowRoot6564-10-81"
       style="font-style:normal;font-weight:normal;font-size:15px;line-height:125%;font-family:sans-serif;letter-spacing:0px;word-spacing:0px;fill:#ff5858;fill-opacity:1;stroke:none;stroke-width:1px;stroke-linecap:butt;stroke-linejoin:miter;stroke-opacity:1"><flowRegion
         id="flowRegion6566-6-3"><rect
           id="rect6568-32-1"
           width="78.571426"
           height="77.85714"
           x="930"
           y="447.66592"
           style="font-size:15px;fill:#ff5858" /></flowRegion><flowPara
         id="flowPara6570-0-1"
         style="font-style:normal;font-variant:normal;font-weight:bold;font-stretch:normal;font-size:17.5px;font-family:sans-serif;-inkscape-font-specification:'sans-serif Bold';fill:#ff5858">x</flowPara></flowRoot>    <flowRoot
       transform="translate(-16.091308,323.47623)"
       xml:space="preserve"
       id="flowRoot6564-10-4-0"
       style="font-style:normal;font-weight:normal;font-size:15px;line-height:125%;font-family:sans-serif;letter-spacing:0px;word-spacing:0px;fill:#ff5858;fill-opacity:1;stroke:none;stroke-width:1px;stroke-linecap:butt;stroke-linejoin:miter;stroke-opacity:1"><flowRegion
         id="flowRegion6566-6-7-3"><rect
           id="rect6568-32-6-4"
           width="78.571426"
           height="77.85714"
           x="930"
           y="447.66592"
           style="font-size:15px;fill:#ff5858" /></flowRegion><flowPara
         id="flowPara6570-0-56-0"
         style="font-style:normal;font-variant:normal;font-weight:bold;font-stretch:normal;font-size:17.5px;font-family:sans-serif;-inkscape-font-specification:'sans-serif Bold';fill:#ff5858">y</flowPara></flowRoot>    <path
       style="opacity:0.72699998;fill:#bcddff;fill-rule:evenodd;stroke:#000000;stroke-width:1px;stroke-linecap:butt;stroke-linejoin:miter;stroke-opacity:1"
       d="m 1130.4169,622.37487 38.3759,-18.09125 -94.1119,-33.80767 -38.3758,18.09125 z"
       id="path10444-3-7"
       inkscape:connector-curvature="0" />
    <path
       style="fill:none;fill-rule:evenodd;stroke:#ff5858;stroke-width:1px;stroke-linecap:butt;stroke-linejoin:miter;stroke-opacity:1;marker-end:url(#marker13456)"
       d="m 1102.5489,596.42541 15.2135,-42.35033"
       id="path11159-3-5"
       inkscape:connector-curvature="0" />
    <path
       style="fill:none;fill-rule:evenodd;stroke:#ff5858;stroke-width:1px;stroke-linecap:butt;stroke-linejoin:miter;stroke-opacity:1;marker-end:url(#marker13682)"
       d="m 1102.5526,596.41519 42.3503,15.21345"
       id="path11159-2-8-6"
       inkscape:connector-curvature="0" />
    <path
       style="fill:none;fill-rule:evenodd;stroke:#ff5858;stroke-width:1px;stroke-linecap:butt;stroke-linejoin:miter;stroke-opacity:1;marker-end:url(#marker13914)"
       d="m 1102.0967,596.6385 -40.6982,19.20053"
       id="path11159-24-0-9"
       inkscape:connector-curvature="0" />
    <flowRoot
       transform="translate(-1.5026618,279.22613)"
       xml:space="preserve"
       id="flowRoot6564-10-6-0-1-2-8"
       style="font-style:normal;font-weight:normal;font-size:15px;line-height:125%;font-family:sans-serif;letter-spacing:0px;word-spacing:0px;opacity:0.90899999;fill:#ff5858;fill-opacity:1;stroke:#ff5858;stroke-width:1px;stroke-linecap:butt;stroke-linejoin:miter;stroke-opacity:1"><flowRegion
         id="flowRegion6566-6-1-6-7-2-7"><rect
           id="rect6568-32-5-8-2-6-2"
           width="78.571426"
           height="77.85714"
           x="930"
           y="447.66592"
           style="font-size:15px;fill:#ff5858;stroke:#ff5858" /></flowRegion><flowPara
         id="flowPara6570-0-5-9-7-1-8"
         style="font-style:italic;font-variant:normal;font-weight:normal;font-stretch:normal;font-size:17.5px;font-family:sans-serif;-inkscape-font-specification:'sans-serif Italic';fill:#ff5858;stroke:#ff5858">O</flowPara></flowRoot>    <ellipse
       style="opacity:0.619;fill:#ff5858;fill-opacity:1;stroke:#ff5858;stroke-width:1;stroke-miterlimit:4;stroke-dasharray:none;stroke-dashoffset:0;stroke-opacity:1"
       id="path6797-9-0-2"
       cx="950.03326"
       cy="742.50006"
       rx="2.0203052"
       ry="2.2728431" />
    <flowRoot
       transform="translate(180.06478,129.65943)"
       xml:space="preserve"
       id="flowRoot6564-10-6-0-1-9"
       style="font-style:normal;font-weight:normal;font-size:15px;line-height:125%;font-family:sans-serif;letter-spacing:0px;word-spacing:0px;opacity:0.88899997;fill:#ff5858;fill-opacity:1;stroke:#ff5858;stroke-width:1px;stroke-linecap:butt;stroke-linejoin:miter;stroke-opacity:1"><flowRegion
         id="flowRegion6566-6-1-6-7-9"><rect
           id="rect6568-32-5-8-2-60"
           width="78.571426"
           height="77.85714"
           x="930"
           y="447.66592"
           style="font-size:15px;fill:#ff5858;stroke:#ff5858" /></flowRegion><flowPara
         id="flowPara6570-0-5-9-7-2"
         style="font-style:italic;font-variant:normal;font-weight:normal;font-stretch:normal;font-size:17.5px;font-family:sans-serif;-inkscape-font-specification:'sans-serif Italic';fill:#ff5858;stroke:#ff5858">O<flowSpan
   style="font-style:italic;font-variant:normal;font-weight:normal;font-stretch:normal;font-size:64.99999762%;font-family:sans-serif;-inkscape-font-specification:'sans-serif Italic';baseline-shift:sub;fill:#ff5858;stroke:#ff5858"
   id="flowSpan7497-7">2</flowSpan></flowPara></flowRoot>    <ellipse
       style="opacity:0.619;fill:#ff5858;fill-opacity:1;stroke:#ff5858;stroke-width:1;stroke-miterlimit:4;stroke-dasharray:none;stroke-dashoffset:0;stroke-opacity:1"
       id="path6797-9-0-2-6"
       cx="1102.5587"
       cy="596.61615"
       rx="2.0203052"
       ry="2.2728431" />
    <ellipse
       style="opacity:1;fill:#ff5858;fill-opacity:1;stroke:#ff5858;stroke-width:1;stroke-miterlimit:4;stroke-dasharray:none;stroke-dashoffset:0;stroke-opacity:1"
       id="path6797-9-0-2-1"
       cx="950.03326"
       cy="697.50006"
       rx="2.0203052"
       ry="2.2728431" />
    <ellipse
       style="opacity:1;fill:#ff5858;fill-opacity:1;stroke:#ff5858;stroke-width:1;stroke-miterlimit:4;stroke-dasharray:none;stroke-dashoffset:0;stroke-opacity:1"
       id="path6797-9-0-2-1-3"
       cx="995.03326"
       cy="742.50006"
       rx="2.0203052"
       ry="2.2728431" />
    <ellipse
       style="opacity:1;fill:#ff5858;fill-opacity:1;stroke:#ff5858;stroke-width:1;stroke-miterlimit:4;stroke-dasharray:none;stroke-dashoffset:0;stroke-opacity:1"
       id="path6797-9-0-2-1-2"
       cx="917.52032"
       cy="775.13507"
       rx="2.0203052"
       ry="2.2728431" />
    <flowRoot
       transform="translate(216.48103,165.51066)"
       xml:space="preserve"
       id="flowRoot6564-10-6-0-1-2-8-1"
       style="font-style:normal;font-weight:normal;font-size:15px;line-height:125%;font-family:sans-serif;letter-spacing:0px;word-spacing:0px;opacity:1;fill:#ff5858;fill-opacity:1;stroke:#ff5858;stroke-width:1px;stroke-linecap:butt;stroke-linejoin:miter;stroke-opacity:1"><flowRegion
         id="flowRegion6566-6-1-6-7-2-7-5"><rect
           id="rect6568-32-5-8-2-6-2-9"
           width="78.571426"
           height="77.85714"
           x="930"
           y="447.66592"
           style="font-size:15px;fill:#ff5858;stroke:#ff5858" /></flowRegion><flowPara
         id="flowPara6570-0-5-9-7-1-8-9"
         style="font-style:italic;font-variant:normal;font-weight:normal;font-stretch:normal;font-size:17.5px;font-family:sans-serif;-inkscape-font-specification:'sans-serif Italic';fill:#ff5858;stroke:#ff5858">X<flowSpan
   style="font-size:64.99999762%;baseline-shift:sub"
   id="flowSpan16075">2</flowSpan></flowPara></flowRoot>    <flowRoot
       transform="translate(180.88452,80.510656)"
       xml:space="preserve"
       id="flowRoot6564-10-6-0-1-2-8-1-1"
       style="font-style:normal;font-weight:normal;font-size:15px;line-height:125%;font-family:sans-serif;letter-spacing:0px;word-spacing:0px;opacity:1;fill:#ff5858;fill-opacity:1;stroke:#ff5858;stroke-width:1px;stroke-linecap:butt;stroke-linejoin:miter;stroke-opacity:1"><flowRegion
         id="flowRegion6566-6-1-6-7-2-7-5-4"><rect
           id="rect6568-32-5-8-2-6-2-9-9"
           width="78.571426"
           height="77.85714"
           x="930"
           y="447.66592"
           style="font-size:15px;fill:#ff5858;stroke:#ff5858" /></flowRegion><flowPara
         style="font-style:italic;font-variant:normal;font-weight:normal;font-stretch:normal;font-size:17.5px;font-family:sans-serif;-inkscape-font-specification:'sans-serif Italic';fill:#ff5858;stroke:#ff5858"
         id="flowPara14329">Z<flowSpan
   style="font-size:64.99999762%;baseline-shift:sub"
   id="flowSpan16073">2</flowSpan></flowPara></flowRoot>    <flowRoot
       transform="translate(119.39771,170.51066)"
       xml:space="preserve"
       id="flowRoot6564-10-6-0-1-2-8-1-0"
       style="font-style:normal;font-weight:normal;font-size:15px;line-height:125%;font-family:sans-serif;letter-spacing:0px;word-spacing:0px;opacity:1;fill:#ff5858;fill-opacity:1;stroke:#ff5858;stroke-width:1px;stroke-linecap:butt;stroke-linejoin:miter;stroke-opacity:1"><flowRegion
         id="flowRegion6566-6-1-6-7-2-7-5-7"><rect
           id="rect6568-32-5-8-2-6-2-9-5"
           width="78.571426"
           height="77.85714"
           x="930"
           y="447.66592"
           style="font-size:15px;fill:#ff5858;stroke:#ff5858" /></flowRegion><flowPara
         id="flowPara6570-0-5-9-7-1-8-9-8"
         style="font-style:italic;font-variant:normal;font-weight:normal;font-stretch:normal;font-size:17.5px;font-family:sans-serif;-inkscape-font-specification:'sans-serif Italic';fill:#ff5858;stroke:#ff5858">Y<flowSpan
   style="font-size:64.99999762%;baseline-shift:sub"
   id="flowSpan16077">2</flowSpan></flowPara></flowRoot>    <path
       style="fill:none;fill-rule:evenodd;stroke:#898989;stroke-width:1px;stroke-linecap:butt;stroke-linejoin:miter;stroke-opacity:1;marker-end:url(#marker13456-0)"
       d="m 950.29309,742.24916 15.2135,-42.35033"
       id="path11159-3-5-2"
       inkscape:connector-curvature="0" />
    <path
       style="fill:none;fill-rule:evenodd;stroke:#898989;stroke-width:1px;stroke-linecap:butt;stroke-linejoin:miter;stroke-opacity:1;marker-end:url(#marker13682-7)"
       d="m 950.29679,742.23894 42.3503,15.21345"
       id="path11159-2-8-6-9"
       inkscape:connector-curvature="0" />
    <path
       style="fill:none;fill-rule:evenodd;stroke:#898989;stroke-width:1px;stroke-linecap:butt;stroke-linejoin:miter;stroke-opacity:1;marker-end:url(#marker13914-4)"
       d="m 949.84089,742.46225 -40.6982,19.20053"
       id="path11159-24-0-9-6"
       inkscape:connector-curvature="0" />
    <ellipse
       style="opacity:1;fill:#ff5858;fill-opacity:1;stroke:#ff5858;stroke-width:1;stroke-miterlimit:4;stroke-dasharray:none;stroke-dashoffset:0;stroke-opacity:1"
       id="path6797-9-0-2-1-3-1"
       cx="1145.8887"
       cy="612.05505"
       rx="2.0203052"
       ry="2.2728431" />
    <ellipse
       style="opacity:1;fill:#ff5858;fill-opacity:1;stroke:#ff5858;stroke-width:1;stroke-miterlimit:4;stroke-dasharray:none;stroke-dashoffset:0;stroke-opacity:1"
       id="path6797-9-0-2-1-3-0"
       cx="1060.9103"
       cy="616.51031"
       rx="2.0203052"
       ry="2.2728431" />
    <ellipse
       style="opacity:1;fill:#ff5858;fill-opacity:1;stroke:#ff5858;stroke-width:1;stroke-miterlimit:4;stroke-dasharray:none;stroke-dashoffset:0;stroke-opacity:1"
       id="path6797-9-0-2-1-3-4"
       cx="1118.2777"
       cy="552.50647"
       rx="2.0203052"
       ry="2.2728431" />
    <flowRoot
       transform="translate(30.540005,231.10911)"
       xml:space="preserve"
       id="flowRoot6564-10-6-06-2"
       style="font-style:normal;font-weight:normal;font-size:15px;line-height:125%;font-family:sans-serif;letter-spacing:0px;word-spacing:0px;fill:#898989;fill-opacity:1;stroke:none;stroke-width:1px;stroke-linecap:butt;stroke-linejoin:miter;stroke-opacity:1"><flowRegion
         id="flowRegion6566-6-1-2-2"><rect
           id="rect6568-32-5-9-2"
           width="78.571426"
           height="77.85714"
           x="930"
           y="447.66592"
           style="font-size:15px;fill:#898989" /></flowRegion><flowPara
         id="flowPara6570-0-5-90-0"
         style="font-style:normal;font-variant:normal;font-weight:bold;font-stretch:normal;font-size:17.5px;font-family:sans-serif;-inkscape-font-specification:'sans-serif Bold';fill:#898989">z<flowSpan
   style="font-size:64.99999762%;baseline-shift:sub;fill:#898989"
   id="flowSpan14798">1</flowSpan></flowPara></flowRoot>    <flowRoot
       transform="translate(58.71162,305.36749)"
       xml:space="preserve"
       id="flowRoot6564-10-81-5"
       style="font-style:normal;font-weight:normal;font-size:15px;line-height:125%;font-family:sans-serif;letter-spacing:0px;word-spacing:0px;fill:#898989;fill-opacity:1;stroke:none;stroke-width:1px;stroke-linecap:butt;stroke-linejoin:miter;stroke-opacity:1"><flowRegion
         id="flowRegion6566-6-3-5"><rect
           id="rect6568-32-1-2"
           width="78.571426"
           height="77.85714"
           x="930"
           y="447.66592"
           style="font-size:15px;fill:#898989" /></flowRegion><flowPara
         id="flowPara6570-0-1-9"
         style="font-style:normal;font-variant:normal;font-weight:bold;font-stretch:normal;font-size:17.5px;font-family:sans-serif;-inkscape-font-specification:'sans-serif Bold';fill:#898989">x<flowSpan
   style="font-size:64.99999762%;baseline-shift:sub;fill:#898989"
   id="flowSpan14852">1</flowSpan></flowPara></flowRoot>    <flowRoot
       transform="translate(-35.225497,303.47907)"
       xml:space="preserve"
       id="flowRoot6564-10-4-0-0"
       style="font-style:normal;font-weight:normal;font-size:15px;line-height:125%;font-family:sans-serif;letter-spacing:0px;word-spacing:0px;fill:#898989;fill-opacity:1;stroke:none;stroke-width:1px;stroke-linecap:butt;stroke-linejoin:miter;stroke-opacity:1"><flowRegion
         id="flowRegion6566-6-7-3-2"><rect
           id="rect6568-32-6-4-8"
           width="78.571426"
           height="77.85714"
           x="930"
           y="447.66592"
           style="font-size:15px;fill:#898989" /></flowRegion><flowPara
         id="flowPara6570-0-56-0-3"
         style="font-style:normal;font-variant:normal;font-weight:bold;font-stretch:normal;font-size:17.5px;font-family:sans-serif;-inkscape-font-specification:'sans-serif Bold';fill:#898989">y<flowSpan
   style="font-size:64.99999762%;baseline-shift:sub;fill:#898989"
   id="flowSpan14850">1</flowSpan></flowPara></flowRoot>    <path
       style="opacity:0.54299999;fill:none;fill-rule:evenodd;stroke:#00900a;stroke-width:1px;stroke-linecap:butt;stroke-linejoin:miter;stroke-opacity:1"
       d="m 1035,502.36222 65,215"
       id="path15055"
       inkscape:connector-curvature="0" />
    <ellipse
       style="opacity:0.619;fill:#00900a;fill-opacity:1;stroke:#00900a;stroke-width:1;stroke-miterlimit:4;stroke-dasharray:none;stroke-dashoffset:0;stroke-opacity:1"
       id="path6797-9-0-2-6-0"
       cx="1100.0806"
       cy="717.56903"
       rx="2.0203052"
       ry="2.2728431" />
    <ellipse
       style="opacity:0.619;fill:#00900a;fill-opacity:1;stroke:#00900a;stroke-width:1;stroke-miterlimit:4;stroke-dasharray:none;stroke-dashoffset:0;stroke-opacity:1"
       id="path6797-9-0-2-6-0-4"
       cx="1035.0664"
       cy="502.50394"
       rx="2.0203052"
       ry="2.2728431" />
    <ellipse
       style="opacity:0.619;fill:#00900a;fill-opacity:1;stroke:#00900a;stroke-width:1;stroke-miterlimit:4;stroke-dasharray:none;stroke-dashoffset:0;stroke-opacity:1"
       id="path6797-9-0-2-6-0-4-0"
       cx="1060.6055"
       cy="587.29858"
       rx="2.0203052"
       ry="2.2728431" />
    <path
       style="opacity:0.528;fill:none;fill-rule:evenodd;stroke:#00900a;stroke-width:1px;stroke-linecap:butt;stroke-linejoin:miter;stroke-opacity:1;marker-end:url(#marker15110)"
       d="m 1102.5698,596.58433 -42.3214,-9.46428"
       id="path15102"
       inkscape:connector-curvature="0" />
    <flowRoot
       transform="translate(108.08321,116.50457)"
       xml:space="preserve"
       id="flowRoot6564-10-6-0-9"
       style="font-style:normal;font-weight:normal;font-size:15px;line-height:125%;font-family:sans-serif;letter-spacing:0px;word-spacing:0px;fill:#009a1f;fill-opacity:1;stroke:none;stroke-width:1px;stroke-linecap:butt;stroke-linejoin:miter;stroke-opacity:1"><flowRegion
         id="flowRegion6566-6-1-6-1"><rect
           id="rect6568-32-5-8-9"
           width="78.571426"
           height="77.85714"
           x="930"
           y="447.66592"
           style="font-size:15px;fill:#009a1f" /></flowRegion><flowPara
         id="flowPara6570-0-5-9-6"
         style="font-style:italic;font-variant:normal;font-weight:normal;font-stretch:normal;font-size:17.5px;font-family:sans-serif;-inkscape-font-specification:'sans-serif Italic';fill:#009a1f">H</flowPara></flowRoot>    <flowRoot
       transform="translate(147.77823,123.33973)"
       xml:space="preserve"
       id="flowRoot6564-10-2-2"
       style="font-style:normal;font-weight:normal;font-size:15px;line-height:125%;font-family:sans-serif;letter-spacing:0px;word-spacing:0px;fill:#009a1f;fill-opacity:1;stroke:none;stroke-width:1px;stroke-linecap:butt;stroke-linejoin:miter;stroke-opacity:1"><flowRegion
         id="flowRegion6566-6-66-5"><rect
           id="rect6568-32-4-44"
           width="78.571426"
           height="77.85714"
           x="930"
           y="447.66592"
           style="font-size:15px;fill:#009a1f;fill-opacity:1" /></flowRegion><flowPara
         id="flowPara6570-0-9-9"
         style="font-style:normal;font-variant:normal;font-weight:bold;font-stretch:normal;font-size:17.5px;font-family:sans-serif;-inkscape-font-specification:'sans-serif Bold';fill:#009a1f;fill-opacity:1">h<flowSpan
   style="font-size:64.99999762%;baseline-shift:sub;fill:#009a1f;fill-opacity:1"
   id="flowSpan6955-9" /></flowPara></flowRoot>    <path
       style="opacity:1;fill:none;fill-rule:evenodd;stroke:#000000;stroke-width:1px;stroke-linecap:butt;stroke-linejoin:miter;stroke-opacity:1;marker-end:url(#marker15425)"
       d="m 950,742.36222 110,-155"
       id="path15417"
       inkscape:connector-curvature="0" />
    <text
       xml:space="preserve"
       style="font-style:normal;font-weight:normal;font-size:17.5px;line-height:125%;font-family:sans-serif;letter-spacing:0px;word-spacing:0px;fill:#000000;fill-opacity:1;stroke:none;stroke-width:1px;stroke-linecap:butt;stroke-linejoin:miter;stroke-opacity:1"
       x="978.74023"
       y="653.75867"
       id="text7122-3"
       sodipodi:linespacing="125%"><tspan
         sodipodi:role="line"
         id="tspan7124-6"
         x="978.74023"
         y="653.75867"
         style="font-style:normal;font-variant:normal;font-weight:bold;font-stretch:normal;font-size:15px;font-family:sans-serif;-inkscape-font-specification:'sans-serif Bold'">H<tspan
   style="font-size:64.99999762%;baseline-shift:sub"
   id="tspan7126-0">GC</tspan></tspan></text>
    <flowRoot
       transform="translate(118.08321,36.504567)"
       xml:space="preserve"
       id="flowRoot6564-10-6-0-9-5"
       style="font-style:normal;font-weight:normal;font-size:15px;line-height:125%;font-family:sans-serif;letter-spacing:0px;word-spacing:0px;fill:#009a1f;fill-opacity:1;stroke:none;stroke-width:1px;stroke-linecap:butt;stroke-linejoin:miter;stroke-opacity:1"><flowRegion
         id="flowRegion6566-6-1-6-1-0"><rect
           id="rect6568-32-5-8-9-2"
           width="78.571426"
           height="77.85714"
           x="930"
           y="447.66592"
           style="font-size:15px;fill:#009a1f" /></flowRegion><flowPara
         id="flowPara6570-0-5-9-6-9"
         style="font-style:italic;font-variant:normal;font-weight:normal;font-stretch:normal;font-size:17.5px;font-family:sans-serif;-inkscape-font-specification:'sans-serif Italic';fill:#009a1f">A</flowPara></flowRoot>    <flowRoot
       transform="translate(188.08321,256.50457)"
       xml:space="preserve"
       id="flowRoot6564-10-6-0-9-4"
       style="font-style:normal;font-weight:normal;font-size:15px;line-height:125%;font-family:sans-serif;letter-spacing:0px;word-spacing:0px;fill:#009a1f;fill-opacity:1;stroke:none;stroke-width:1px;stroke-linecap:butt;stroke-linejoin:miter;stroke-opacity:1"><flowRegion
         id="flowRegion6566-6-1-6-1-3"><rect
           id="rect6568-32-5-8-9-5"
           width="78.571426"
           height="77.85714"
           x="930"
           y="447.66592"
           style="font-size:15px;fill:#009a1f" /></flowRegion><flowPara
         id="flowPara6570-0-5-9-6-1"
         style="font-style:italic;font-variant:normal;font-weight:normal;font-stretch:normal;font-size:17.5px;font-family:sans-serif;-inkscape-font-specification:'sans-serif Italic';fill:#009a1f">B</flowPara></flowRoot>  </g>
</svg>
